HW2/multiplexer.vcd
$date
	Fri Sep 21 09:12:24 2018
$end
$version
	Icarus Verilog
$end
$timescale
	1ps
$end
$scope module structuralMultiplexer $end
$var wire 1 ! address0 $end
$var wire 1 " address1 $end
$var wire 1 # and0 $end
$var wire 1 $ and1 $end
$var wire 1 % and2 $end
$var wire 1 & and3 $end
$var wire 1 ' in0 $end
$var wire 1 ( in1 $end
$var wire 1 ) in2 $end
$var wire 1 * in3 $end
$var wire 1 + naddress0 $end
$var wire 1 , naddress1 $end
$var wire 1 - out $end
$upscope $end
$scope module testMultiplexer $end
$var wire 1 . out $end
$var reg 1 / addr0 $end
$var reg 1 0 addr1 $end
$var reg 1 1 in0 $end
$var reg 1 2 in1 $end
$var reg 1 3 in2 $end
$var reg 1 4 in3 $end
$scope module multiplexer $end
$var wire 1 / address0 $end
$var wire 1 0 address1 $end
$var wire 1 1 in0 $end
$var wire 1 2 in1 $end
$var wire 1 3 in2 $end
$var wire 1 4 in3 $end
$var wire 1 . out $end
$var wire 4 5 inputs [3:0] $end
$var wire 2 6 address [1:0] $end
$upscope $end
$upscope $end
$enddefinitions $end
#0
$dumpvars
b0 6
b0 5
04
03
02
01
00
0/
0.
x-
z,
z+
z*
z)
z(
z'
x&
x%
x$
x#
z"
z!
$end
#1000000
b10 6
10
#2000000
00
b1 6
1/
#3000000
b11 6
10
#4000000
1.
00
b0 6
0/
b1 5
11
#5000000
0.
b10 6
10
#6000000
00
b1 6
1/
#7000000
b11 6
10
#8000000
00
b0 6
0/
12
b10 5
01
#9000000
b10 6
10
#10000000
1.
00
b1 6
1/
#11000000
0.
b11 6
10
#12000000
00
0.
b0 6
0/
13
b100 5
02
#13000000
1.
b10 6
10
#14000000
00
0.
b1 6
1/
#15000000
b11 6
10
#16000000
00
b0 6
0/
0.
14
b1000 5
03
#17000000
b10 6
10
#18000000
00
0.
b1 6
1/
#19000000
1.
b11 6
10
#20000000
0.
00
b0 6
0/
b1100 5
13
#21000000
1.
b10 6
10
#22000000
0.
00
b1 6
1/
#23000000
1.
b11 6
10
#24000000
00
b0 6
0/
0.
04
b110 5
12
#25000000
1.
b10 6
10
#26000000
00
1.
b1 6
1/
#27000000
0.
b11 6
10
#28000000
1.
00
b0 6
0/
03
b11 5
11
#29000000
0.
b10 6
10
#30000000
1.
00
b1 6
1/
#31000000
0.
b11 6
10
#32000000
00
b0 6
0/
1.
14
b1001 5
02
#33000000
0.
b10 6
10
#34000000
00
0.
b1 6
1/
#35000000
1.
b11 6
10
#36000000
00
0.
b0 6
0/
12
b1010 5
01
#37000000
b10 6
10
#38000000
00
1.
b1 6
1/
#39000000
b11 6
10
#40000000
00
b0 6
0/
1.
04
13
02
b101 5
11
#41000000
b10 6
10
#42000000
00
0.
b1 6
1/
#43000000
b11 6
10
#44000000
00
1.
b0 6
0/
b111 5
12
#45000000
b10 6
10
#46000000
00
1.
b1 6
1/
#47000000
0.
b11 6
10
#48000000
00
b0 6
0/
1.
14
b1011 5
03
#49000000
0.
b10 6
10
#50000000
00
1.
b1 6
1/
#51000000
b11 6
10
#52000000
00
b0 6
0/
13
b1101 5
02
#53000000
b10 6
10
#54000000
0.
00
b1 6
1/
#55000000
1.
b11 6
10
#56000000
0.
00
b0 6
0/
12
b1110 5
01
#57000000
1.
b10 6
10
#58000000
00
b1 6
1/
#59000000
b11 6
10
#60000000
00
b0 6
0/
b1111 5
11
#61000000
b10 6
10
#62000000
00
b1 6
1/
#63000000
b11 6
10
